Standard,dD,dD_u,d18O,d18O_u,d17O,d17O_u
GSM1,-262.40,0.23,-32.9840,0.0134,-17.5133,0.0600
VATS,-126.56,0.33,-16.3794,0.0126,-8.6233,0.0600
DI,-50.28,0.14,-7.6962,0.0029,-3.9989,0.0600
VSMOW2,0.00,0.30,0.0000,0.0200,0.0000,0.0600
SLAP2,-427.50,0.30,-55.5000,0.0200,-29.7000,0.0400
GRESP,-258.00,0.40,-33.4000,0.0400,0.0000,0.0000
SVAL,-105.51,0.30,-14.7200,0.0200,0.0000,0.0000
BRE,-90.83,0.14,-12.6983,0.0102,0.0000,0.0000
SEAOLD,4.99,0.30,0.8500,0.0200,0.0000,0.0000
SEAII,1.30,0.10,0.2638,0.0297,0.1500,0.0000
EVAP,5.22,0.13,5.0875,0.0221,2.6411,0.0600
DI2,-50.80,0.27,-7.6364,0.0923,-4.1376,0.0000
BERM,6.47,0.73,0.5750,0.0316,0.2088,0.0000
GLW,-308.14,0.51,-40.0608,0.0346,-21.5008,0.0000
EVAP2,9.21,0.65,1.7724,0.0664,0.8172,0.0000
FIN,-81.10,0.47,-11.6468,0.0550,-6.2798,0.0000