Standard,dD,dD_u,d18O,d18O_u,d17O,d17O_u
GSM1,-262.40,0.18,-32.9840,0.0209,-17.5133,0.0600
VATS,-126.56,0.17,-16.3794,0.0120,-8.6233,0.0600
DI,-50.28,0.18,-7.6962,0.0230,-3.9989,0.0600
VSMOW2,0.00,0.30,0.0000,0.0200,0.0000,0.0600
SLAP2,-427.50,0.30,-55.5000,0.0200,-29.7000,0.0400
GRESP,-258.00,0.40,-33.4000,0.0400,-17.7232,0.0052
SVAL,-105.51,0.30,-14.7200,0.0200,0.0000,0.0000
BRE,-90.83,0.12,-12.6983,0.0195,0.0000,0.0000
SEAOLD,4.99,0.30,0.8500,0.0200,0.0000,0.0000
SEAII,1.30,0.05,0.2638,0.0084,0.1500,0.0000
EVAP,5.22,0.18,5.0875,0.0222,2.6411,0.0600
DI2,-50.60,0.18,-7.6431,0.0139,-4.0693,0.0228
BERM,6.57,0.10,0.5658,0.0123,0.2539,0.0170
GLW,-308.22,0.17,-40.0929,0.0224,-21.3971,0.0362
EVAP2,9.33,0.12,1.7727,0.0153,0.8655,0.0177
FIN,-81.06,0.13,-11.6628,0.0182,-6.1897,0.0250
WICO2,-41.70,1.10,-5.1100,0.0300,0.0000,0.0000
WICO3,-168.30,1.00,-22.0100,0.0500,0.0000,0.0000